<?xml version="1.0" encoding="UTF-8" standalone="no"?>
<!-- Created with Inkscape (http://www.inkscape.org/) -->

<svg
   xmlns:dc="http://purl.org/dc/elements/1.1/"
   xmlns:cc="http://creativecommons.org/ns#"
   xmlns:rdf="http://www.w3.org/1999/02/22-rdf-syntax-ns#"
   xmlns:svg="http://www.w3.org/2000/svg"
   xmlns="http://www.w3.org/2000/svg"
   xmlns:sodipodi="http://sodipodi.sourceforge.net/DTD/sodipodi-0.dtd"
   xmlns:inkscape="http://www.inkscape.org/namespaces/inkscape"
   width="800mm"
   height="800mm"
   viewBox="0 0 800 800"
   version="1.1"
   id="SVGRoot"
   inkscape:version="0.92.2 (5c3e80d, 2017-08-06)"
   sodipodi:docname="logo.svg"
   inkscape:export-filename="\\KKC-DATA\Volume_1\KKC Customers\Bb\ben\logo\logo.png"
   inkscape:export-xdpi="96"
   inkscape:export-ydpi="96">
  <sodipodi:namedview
     id="base"
     pagecolor="#ffffff"
     bordercolor="#666666"
     borderopacity="1.0"
     inkscape:pageopacity="0.0"
     inkscape:pageshadow="2"
     inkscape:zoom="0.1767767"
     inkscape:cx="2537.2367"
     inkscape:cy="2365.9348"
     inkscape:document-units="mm"
     inkscape:current-layer="layer1"
     showgrid="false"
     inkscape:window-width="1920"
     inkscape:window-height="1017"
     inkscape:window-x="-8"
     inkscape:window-y="-8"
     inkscape:window-maximized="1" />
  <defs
     id="defs82">
    <clipPath
       clipPathUnits="userSpaceOnUse"
       id="clipPath4629">
      <rect
         style="fill:#00ffff;fill-opacity:0.58139535;stroke-width:0.3160626"
         id="rect4631"
         width="735.88361"
         height="438.08746"
         x="67.989143"
         y="40.39225"
         transform="matrix(1,0,-0.20528387,0.97870247,0,0)" />
    </clipPath>
  </defs>
  <metadata
     id="metadata85">
    <rdf:RDF>
      <cc:Work
         rdf:about="">
        <dc:format>image/svg+xml</dc:format>
        <dc:type
           rdf:resource="http://purl.org/dc/dcmitype/StillImage" />
        <dc:title></dc:title>
      </cc:Work>
    </rdf:RDF>
  </metadata>
  <g
     id="layer1"
     inkscape:groupmode="layer"
     inkscape:label="Layer 1">
    <text
       xml:space="preserve"
       style="font-style:normal;font-weight:normal;font-size:10.58333302px;line-height:1.25;font-family:sans-serif;letter-spacing:0px;word-spacing:0px;fill:#000000;fill-opacity:1;stroke:none;stroke-width:0.26458332"
       x="-57.8125"
       y="642.1875"
       id="text3805"><tspan
         sodipodi:role="line"
         id="tspan3803"
         x="-57.8125"
         y="651.84302"
         style="stroke-width:0.26458332" /></text>
    <flowRoot
       xml:space="preserve"
       id="flowRoot3807"
       style="font-style:normal;font-weight:normal;font-size:40px;line-height:1.25;font-family:sans-serif;letter-spacing:0px;word-spacing:0px;fill:#000000;fill-opacity:1;stroke:none"
       transform="translate(-176.5625,217.1875)"><flowRegion
         id="flowRegion3809"><rect
           id="rect3811"
           width="1866.1417"
           height="1541.3386"
           x="448.81891"
           y="1299.2126" /></flowRegion><flowPara
         id="flowPara3813" /></flowRoot>    <g
       id="g4627"
       clip-path="url(#clipPath4629)">
      <flowRoot
         transform="matrix(0.26458333,0,0,0.26458333,39.0625,193.75)"
         style="font-style:normal;font-weight:normal;font-size:533.33331299px;line-height:1.25;font-family:sans-serif;letter-spacing:0px;word-spacing:0px;fill:#800000;fill-opacity:1;stroke:none"
         id="flowRoot3795"
         xml:space="preserve"><flowRegion
           style="font-size:533.33331299px;fill:#800000"
           id="flowRegion3797"><rect
             style="font-size:533.33331299px;fill:#800000"
             y="2.3008884e-005"
             x="0"
             height="3029.5276"
             width="3023.6221"
             id="rect3799" /></flowRegion><flowPara
           style="font-style:normal;font-variant:normal;font-weight:normal;font-stretch:normal;font-size:800px;font-family:'Frozen Dog Treats';-inkscape-font-specification:'Frozen Dog Treats';fill:#800000"
           id="flowPara3801">F</flowPara></flowRoot>      <flowRoot
         transform="matrix(0.26458333,0,0,0.26458333,146.875,243.75)"
         style="font-style:normal;font-weight:normal;font-size:40px;line-height:1.25;font-family:sans-serif;letter-spacing:0px;word-spacing:0px;fill:#800000;fill-opacity:1;stroke:none"
         id="flowRoot3823"
         xml:space="preserve"><flowRegion
           style="fill:#800000"
           id="flowRegion3825"><rect
             style="fill:#800000"
             y="-5.905489"
             x="-5.9055119"
             height="3029.5276"
             width="3041.3386"
             id="rect3827" /></flowRegion><flowPara
           style="font-style:normal;font-variant:normal;font-weight:normal;font-stretch:normal;font-size:800px;font-family:'Frozen Dog Treats';-inkscape-font-specification:'Frozen Dog Treats';fill:#800000"
           id="flowPara3829">S</flowPara></flowRoot>      <flowRoot
         transform="matrix(0.26458333,0,0,0.26458333,415.57498,212.39996)"
         style="font-style:normal;font-weight:normal;font-size:1066.66662598px;line-height:1.25;font-family:sans-serif;letter-spacing:0px;word-spacing:0px;fill:#800000;fill-opacity:1;stroke:none"
         id="flowRoot3831"
         xml:space="preserve"><flowRegion
           style="font-size:1066.66662598px;fill:#800000"
           id="flowRegion3833"><rect
             style="font-size:1066.66662598px;fill:#800000"
             y="-5.905489"
             x="-17.716536"
             height="3029.5276"
             width="3059.0552"
             id="rect3835" /></flowRegion><flowPara
           style="font-style:normal;font-variant:normal;font-weight:normal;font-stretch:normal;font-size:800px;font-family:'Frozen Dog Treats';-inkscape-font-specification:'Frozen Dog Treats';fill:#800000"
           id="flowPara3837">M</flowPara></flowRoot>      <rect
         y="292.14642"
         x="452.0697"
         height="36.194019"
         width="326.0553"
         id="rect3843"
         style="fill:#800000;stroke-width:0.28036246" />
      <rect
         y="243.70845"
         x="376.85257"
         height="36.194019"
         width="412.83862"
         id="rect3843-2"
         style="fill:#800000;stroke-width:0.3154746" />
    </g>
  </g>
</svg>
